{
    "name": "Anttail",
    "description": "Anttail demo",
    "long_description": "Demo for anttail",
    "version": "1.0.2",
    "language": "Python",
    "author": "Pim",
    "author_email": "pim@sense-os.nl",
    "url": "http://sense-os.nl",
    "tags": [
        "Anttail",
        "experimental"
    ],
    "parameters": [
        {
            "name": "maxThreshold",
            "description": "Give an alert when the temperature is rises above this value.",
            "default": "22",
            "type": "number",
            "optional": false
        }
    ]
}
